<!DOCTYPE html>
<html>
<head>
<meta name="viewport" content="width=device-width, initial-scale=1">
<link rel="stylesheet" href="reg.css">

</head>
<body>
<form action="/action_page.php" onsubmit="return Registration()" method="POST"> 
    <div class="container">
      <h1>Register</h1>
      <p>Please fill in this form to create an account.</p>
      <hr>
  
      <label for="name"><b>Name</b></label>
      <input type="text" placeholder="Enter name" name="name" id="name" required>
      <label for="email"><b>Email</b></label>
      <input type="text" placeholder="Enter email id" name="email" id="email" required>
      <label for="userid"><b>User id</b></label>
      <input type="text" placeholder="Enter userid" name="userid" id="userid" required>
  
      
      
      
  
      <button type="submit" class="registerbtn">submit</button>
    </div>
    

  </form>
  <script>
    function Registration() {
        var name = document.getElementById("name").value;
        var email = document.getElementById("email").value;
        var userid = document.getElementById("userid").value;
        if(name.length <= 2){
         alert("invalid name");
        }
        if(userid.length<=8){
         alert("invalid user id");
        }
    }
</script>

</body>
</html>